"c_QO_Alarm_Data_id";"c_style_id"
1;87
2;87
3;87
4;87
5;87
6;87
7;87
8;12
9;12
10;74
11;74
12;74
13;74
14;74
15;74
16;74
17;74
18;74
19;74
20;74
21;74
22;74
23;74
24;74
25;74
26;74
27;74
28;74
29;74
30;74
31;74
32;74
33;74
34;74
35;74
36;74
37;74
38;74
39;74
40;74
41;74
42;74
43;74
44;74
45;74
46;74
47;87
48;87
49;87
50;74
50;87
51;87
52;87
53;74
54;86
55;86
56;86
57;86
58;91
59;91
60;91
61;91
62;91
63;91
64;91
65;91
66;91
67;91
68;91
69;91
70;91
71;91
72;91
73;91
74;91
75;91
76;91
77;91
78;91
79;91
80;91
81;91
82;91
83;91
84;91
85;91
86;91
87;91
88;100
89;100
90;100
91;100
92;100
93;100
94;101
95;93
96;101
97;93
98;101
99;93
100;101
100;102
101;93
102;102
103;93
104;102
105;102
105;103
106;103
107;104
108;104
109;93
110;105
111;93
111;105
112;105
113;100
114;105
115;100
116;100
117;106
118;106
119;106
120;106
121;106
122;93
123;106
124;106
125;108
126;108
127;109
128;109
129;109
130;109
131;109
132;109
133;109
134;109
135;109
136;110
137;110
138;110
139;110
140;110
141;110
142;110
143;110
144;110
145;111
146;111
147;93
148;93
149;93
150;93
151;100
152;116
153;100
154;116
155;86
156;86
157;86
158;86
159;86
160;86
161;86
162;86
163;86
164;86
165;86
166;86
167;81
168;110
169;86
170;86
171;116
172;116
173;116
174;116
175;116
176;116
177;116
178;116
179;116
180;116
181;116
182;116
183;116
184;116
185;116
186;116
