[Hooked Modules]
MsgHandler.exe=T
[Non-Hooked Modules]
LZ32.dll=T
IDAPI32.DLL=T
rpcltc1.dll=T
IDR20009.DLL=T
BANTAM.DLL=T
odbcint.dll=T
odbc32.dll=T
IDODBC32.DLL=T
SQLWOA.dll=T
sqlsrv32.dll=T
NDDEAPI.DLL=T
odbccp32.dll=T
DBNMPNTW.DLL=T
