[Project]
Author=SDo
DictionaryCode=4
ApplicationType=1
ApplicationFile=..\System\MMAlerterLight\MMAlerter.exe
ShowMapInfo=1
TranslateMode=0
FieldWidth=0
AddLanguageNames=1
AddCountryNames=1
DictionaryType=4
DictionaryFormat=0
DictionaryName=..\..\BuildFolder\MMAlerterConfig.mld
FileType=0
FileLayout=0
Deployed=0
[Print]
Page=0
Orientation=1
Info=1
PageNumber=1
Header=1
RowNumber=1
WrapLines=1
Comment=0
Location=0
[Scan Files]
Count=7
[Scan File 1]
Type=FormFile
InitializationFunction=
TargetCount=2
TargetClass1=
TargetProperty1=Caption
TargetType1=0
TargetClass2=
TargetProperty2=Hint
TargetType2=0
FileName=..\System\MMAlerterLight\u_MMAlerterMain.dfm
ScanSubDirs=1
[Scan File 2]
Type=FormFile
InitializationFunction=
TargetCount=6
TargetClass1=
TargetProperty1=Caption
TargetType1=0
TargetClass2=
TargetProperty2=Masks.NegativeMask
TargetType2=0
TargetClass3=
TargetProperty3=Masks.PositiveMask
TargetType3=0
TargetClass4=
TargetProperty4=Masks.ZeroMask
TargetType4=0
TargetClass5=
TargetProperty5=ValidateString
TargetType5=0
TargetClass6=
TargetProperty6=TargetsData
TargetType6=0
FileName=..\System\MMAlerterLight\u_QOffAlarmConfig.dfm
ScanSubDirs=1
[Scan File 3]
Type=FormFile
InitializationFunction=
TargetCount=7
TargetClass1=
TargetProperty1=Caption
TargetType1=0
TargetClass2=
TargetProperty2=Hint
TargetType2=0
TargetClass3=
TargetProperty3=Masks.NegativeMask
TargetType3=0
TargetClass4=
TargetProperty4=Masks.PositiveMask
TargetType4=0
TargetClass5=
TargetProperty5=Masks.ZeroMask
TargetType5=0
TargetClass6=
TargetProperty6=ValidateString
TargetType6=0
TargetClass7=
TargetProperty7=TargetsData
TargetType7=0
FileName=..\System\MMAlerterLight\u_HardwareConfig.dfm
ScanSubDirs=1
[Scan File 4]
Type=SourceFile
SourceFileType=2
Tags=ivlm
TagType=0
Functions=Translate
FileName=..\System\MMAlerterLight\u_AlerterConfig.pas
ScanSubDirs=1
[Scan File 5]
Type=SourceFile
SourceFileType=2
Tags=ivlm
TagType=0
Functions=Translate
FileName=..\System\MMAlerterLight\u_HardwareConfig.pas
ScanSubDirs=1
[Scan File 6]
Type=SourceFile
SourceFileType=2
Tags=ivlm
TagType=0
Functions=Translate
FileName=..\System\MMAlerterLight\u_QOffAlarmConfig.pas
ScanSubDirs=1
[Scan File 7]
Type=SourceFile
SourceFileType=2
Tags=ivlm
TagType=0
Functions=Translate
FileName=..\System\MMAlerterLight\u_MMAlerter.pas
ScanSubDirs=1
[Grid]
ChangeKeyboardLayout=1
FontName=Arial
FontSize=10
MarkUnsupported=1
MarkLong=1
LongTreshold=20
[Ingoned Ambiguous Strings]
Count=0
[Project Strings]
Count=0
[Exclude Strings]
Count=69
Str1=Argentina
Str2=Australia
Str3=Austria
Str4=Belgium
Str5=Belize
Str6=Bolivia
Str7=Brazil
Str8=Canada
Str9=Caption
Str10=Caption
Str11=Caribbean
Str12=Chile
Str13=Chinese,<sp>Simplified
Str14=Chinese,<sp>Traditional
Str15=Colombia
Str16=Confirm<sp>Alert
Str17=Connection<sp>check
Str18=Costa<sp>Rica
Str19=Dominican<sp>Republic
Str20=Ecuador
Str21=El<sp>Salvador
Str22=English
Str23=France
Str24=French
Str25=German
Str26=Germany
Str27=Guatemala
Str28=Hint
Str29=Hint
Str30=Honduras
Str31=Hong<sp>Kong
Str32=Ireland
Str33=Italian
Str34=Italy
Str35=Items
Str36=Jamaica
Str37=Liechtenstein
Str38=Light<sp>OFF
Str39=Light<sp>ON
Str40=Luxembourg
Str41=Macau
Str42=Mexico
Str43=New<sp>Zealand
Str44=Nicaragua
Str45=Panama
Str46=Paraguay
Str47=People<sq>s<sp>Republic<sp>of<sp>China
Str48=Peru
Str49=Portugal
Str50=Portuguese
Str51=Principality<sp>of<sp>Monaco
Str52=Puerto<sp>Rico
Str53=q
Str54=Republic<sp>of<sp>the<sp>Philippines
Str55=Singapore
Str56=South<sp>Africa
Str57=Spain
Str58=Spanish
Str59=Switzerland
Str60=Taiwan
Str61=TForm
Str62=Trinidad<sp>y<sp>Tobago
Str63=Turkey
Str64=Turkish
Str65=United<sp>Kingdom
Str66=United<sp>States
Str67=Uruguay
Str68=Venezuela
Str69=Zimbabwe
[1stClass Strings]
Count=0
[Dialog Strings]
Count=0
[System Strings]
Count=0
[Find Strings]
Count=1
Str1=alert
[Tests]
Count=0
[Info]
Version=41
[Language0]
Visible=1
Enabled=1
FontName=
FontSize=0
ImeMode=0
Type=0
Parameters=
FilledType=0
FilledParameters=
[Language1]
Visible=1
Enabled=1
FontName=
FontSize=0
ImeMode=0
Type=0
Parameters=
FilledType=0
FilledParameters=
[Language2]
Visible=1
Enabled=1
FontName=
FontSize=0
ImeMode=0
Type=0
Parameters=
FilledType=0
FilledParameters=
[Language3]
Visible=0
Enabled=1
FontName=
FontSize=0
ImeMode=0
Type=0
Parameters=
FilledType=0
FilledParameters=
[Language4]
Visible=0
Enabled=1
FontName=
FontSize=0
ImeMode=0
Type=0
Parameters=
FilledType=0
FilledParameters=
[Language5]
Visible=0
Enabled=1
FontName=
FontSize=0
ImeMode=0
Type=0
Parameters=
FilledType=0
FilledParameters=
[Language6]
Visible=0
Enabled=1
FontName=
FontSize=0
ImeMode=0
Type=0
Parameters=
FilledType=0
FilledParameters=
[Language7]
Visible=1
Enabled=1
FontName=
FontSize=0
ImeMode=9
Type=0
Parameters=
FilledType=0
FilledParameters=
[Language8]
Visible=0
Enabled=1
FontName=
FontSize=0
ImeMode=9
Type=0
Parameters=
FilledType=0
FilledParameters=
[Language9]
Visible=0
Enabled=1
FontName=
FontSize=0
ImeMode=0
Type=0
Parameters=
FilledType=0
FilledParameters=
